%YAML 1.1
%TAG !u! tag:unity3d.com,2011:
--- !u!114 &11400000
MonoBehaviour:
  m_ObjectHideFlags: 0
  m_PrefabParentObject: {fileID: 0}
  m_PrefabInternal: {fileID: 0}
  m_GameObject: {fileID: 0}
  m_Enabled: 1
  m_EditorHideFlags: 0
  m_Script: {fileID: 11500000, guid: 34e293fc5b9a5c7459a20c50dc1f10b1, type: 3}
  m_Name: Basic Purple Staff
  m_EditorClassIdentifier: 
  itemName: Basic Purple Staff
  itemModelName: Scepter 01 Purple
  itemModelVariantName: 
  equipSlots: 2
  itemType: 4
  statModifiers:
  - stat: 8
    value: 15
