%YAML 1.1
%TAG !u! tag:unity3d.com,2011:
--- !u!1 &1853733474732274
GameObject:
  m_ObjectHideFlags: 0
  m_CorrespondingSourceObject: {fileID: 0}
  m_PrefabInstance: {fileID: 0}
  m_PrefabAsset: {fileID: 0}
  serializedVersion: 6
  m_Component:
  - component: {fileID: 4737116977218808}
  - component: {fileID: 114690556241129244}
  - component: {fileID: 114712504123925056}
  - component: {fileID: 114388444752866668}
  m_Layer: 0
  m_Name: Archer
  m_TagString: Untagged
  m_Icon: {fileID: 0}
  m_NavMeshLayer: 0
  m_StaticEditorFlags: 0
  m_IsActive: 1
--- !u!4 &4737116977218808
Transform:
  m_ObjectHideFlags: 0
  m_CorrespondingSourceObject: {fileID: 0}
  m_PrefabInstance: {fileID: 0}
  m_PrefabAsset: {fileID: 0}
  m_GameObject: {fileID: 1853733474732274}
  m_LocalRotation: {x: 0, y: 0, z: 0, w: 1}
  m_LocalPosition: {x: 0, y: 0, z: 0}
  m_LocalScale: {x: 1, y: 1, z: 1}
  m_Children: []
  m_Father: {fileID: 0}
  m_RootOrder: 0
  m_LocalEulerAnglesHint: {x: 0, y: 0, z: 0}
--- !u!114 &114690556241129244
MonoBehaviour:
  m_ObjectHideFlags: 0
  m_CorrespondingSourceObject: {fileID: 0}
  m_PrefabInstance: {fileID: 0}
  m_PrefabAsset: {fileID: 0}
  m_GameObject: {fileID: 1853733474732274}
  m_Enabled: 1
  m_EditorHideFlags: 0
  m_Script: {fileID: 11500000, guid: 06c750bedbcd144b6b647b8edb4ac5d4, type: 3}
  m_Name: 
  m_EditorClassIdentifier: 
  jobType: 2
  baseStats: 24000000480000004800000040000000500000006a0000000c00000006000000000000000400000005000000
  growStats:
  - 7.2
  - 7.2
  - 7.2
  - 6.4
  - 8.1
  - 1.4
  - 0
  - 0
  - 0
  - 0
  - 0
--- !u!114 &114712504123925056
MonoBehaviour:
  m_ObjectHideFlags: 0
  m_CorrespondingSourceObject: {fileID: 0}
  m_PrefabInstance: {fileID: 0}
  m_PrefabAsset: {fileID: 0}
  m_GameObject: {fileID: 1853733474732274}
  m_Enabled: 1
  m_EditorHideFlags: 0
  m_Script: {fileID: 11500000, guid: 3aae652a159b84a248a36741276a2209, type: 3}
  m_Name: 
  m_EditorClassIdentifier: 
  type: 7
  amount: 6
--- !u!114 &114388444752866668
MonoBehaviour:
  m_ObjectHideFlags: 0
  m_CorrespondingSourceObject: {fileID: 0}
  m_PrefabInstance: {fileID: 0}
  m_PrefabAsset: {fileID: 0}
  m_GameObject: {fileID: 1853733474732274}
  m_Enabled: 1
  m_EditorHideFlags: 0
  m_Script: {fileID: 11500000, guid: 3aae652a159b84a248a36741276a2209, type: 3}
  m_Name: 
  m_EditorClassIdentifier: 
  type: 13
  amount: 4
