%YAML 1.1
%TAG !u! tag:unity3d.com,2011:
--- !u!114 &11400000
MonoBehaviour:
  m_ObjectHideFlags: 0
  m_PrefabParentObject: {fileID: 0}
  m_PrefabInternal: {fileID: 0}
  m_GameObject: {fileID: 0}
  m_Enabled: 1
  m_EditorHideFlags: 0
  m_Script: {fileID: 11500000, guid: 822241152ccff4378b7db898f9908633, type: 3}
  m_Name: Thief
  m_EditorClassIdentifier: 
  model: Base Character
  job: 3
  attack: Common/Attack
  abilityCatalog: Theif Catalog
  strategy: Rogue Attack Pattern
  locomotion: 0
  alliance: 1
