%YAML 1.1
%TAG !u! tag:unity3d.com,2011:
--- !u!162 &1
EditorUserSettings:
  m_ObjectHideFlags: 0
  serializedVersion: 4
  m_ConfigSettings:
    RecentlyUsedScenePath-0:
      value: 2242470311464664200f052c5f105c1518120b650f2027222c2a0936f0a0172ae7e622e6f5742a323016f6
      flags: 0
    RecentlyUsedScenePath-1:
      value: 2242470311464664200f052c5f105c1518120b650e27272229693e21e7e12037f0a923e7ee2e26
      flags: 0
    RecentlyUsedScenePath-2:
      value: 224247031146467d0c001823033a1f231d1e14266c01253f233a5200e1e53a3df1a812ecea357129370bfb25
      flags: 0
    RecentlyUsedScenePath-3:
      value: 224247031146467a1e1a0d3020224b18101e162e252621003f261736e1f47b1dfae63bf9eb3f0c3f3c0cea2f4b1b193eff1a050ea75e35593541af2a5fea1e1a05dc
      flags: 0
    RecentlyUsedScenePath-4:
      value: 224247031146467c38274c12220c1f3b1f0358676c0e273e39280e2aa2d2041fadd435ece93f2c731d07e233373d0431f735411da4455a425f1bf30705e6
      flags: 0
    RecentlyUsedScenePath-5:
      value: 22424703114646762e2c430f11331f35121e0c253e670b313d693837ebf43b2aa2d435ece93f7129370bfb25
      flags: 0
    RecentlyUsedScenePath-6:
      value: 2242470311464664200f052c5f105c1518120b650027213923692e30e7ee3176f7e93ffdfe
      flags: 0
    RecentlyUsedScenePath-7:
      value: 2242470311464664200f052c5f105c1518120b650f2027222c2a0936f0a0073deee235fda7093c393707a1290a371526
      flags: 0
    RecentlyUsedScenePath-8:
      value: 2242470311464664200f052c5f105c1518120b650e293224212c5326ece92021
      flags: 0
    RecentlyUsedScenePath-9:
      value: 2242470311464664200f052c5f105c1518120b650b292b356d1e1221eee4740be1e238eca92f31352d1b
      flags: 0
    vcSharedLogLevel:
      value: 0d5e400f0650
      flags: 0
  m_VCAutomaticAdd: 1
  m_VCDebugCom: 0
  m_VCDebugCmd: 0
  m_VCDebugOut: 0
  m_SemanticMergeMode: 2
  m_VCShowFailedCheckout: 1
  m_VCOverwriteFailedCheckoutAssets: 1
  m_VCProjectOverlayIcons: 1
  m_VCHierarchyOverlayIcons: 1
  m_VCOtherOverlayIcons: 1
  m_VCAllowAsyncUpdate: 0
