%YAML 1.1
%TAG !u! tag:unity3d.com,2011:
--- !u!1 &100000
GameObject:
  m_ObjectHideFlags: 1
  m_PrefabParentObject: {fileID: 0}
  m_PrefabInternal: {fileID: 100100000}
  serializedVersion: 5
  m_Component:
  - component: {fileID: 400000}
  m_Layer: 0
  m_Name: ShootPoint
  m_TagString: Untagged
  m_Icon: {fileID: 0}
  m_NavMeshLayer: 0
  m_StaticEditorFlags: 0
  m_IsActive: 1
--- !u!1 &100004
GameObject:
  m_ObjectHideFlags: 0
  m_PrefabParentObject: {fileID: 0}
  m_PrefabInternal: {fileID: 100100000}
  serializedVersion: 5
  m_Component:
  - component: {fileID: 400004}
  - component: {fileID: 11400000}
  - component: {fileID: 11468736}
  - component: {fileID: 11483626}
  m_Layer: 0
  m_Name: UnitR_Drone
  m_TagString: Untagged
  m_Icon: {fileID: 0}
  m_NavMeshLayer: 0
  m_StaticEditorFlags: 0
  m_IsActive: 1
--- !u!1 &100006
GameObject:
  m_ObjectHideFlags: 1
  m_PrefabParentObject: {fileID: 0}
  m_PrefabInternal: {fileID: 100100000}
  serializedVersion: 5
  m_Component:
  - component: {fileID: 400006}
  m_Layer: 0
  m_Name: TargetPoint
  m_TagString: Untagged
  m_Icon: {fileID: 0}
  m_NavMeshLayer: 0
  m_StaticEditorFlags: 0
  m_IsActive: 1
--- !u!1 &124502
GameObject:
  m_ObjectHideFlags: 1
  m_PrefabParentObject: {fileID: 0}
  m_PrefabInternal: {fileID: 100100000}
  serializedVersion: 5
  m_Component:
  - component: {fileID: 411862}
  - component: {fileID: 3342952}
  - component: {fileID: 2373928}
  m_Layer: 0
  m_Name: TankTurret6
  m_TagString: Untagged
  m_Icon: {fileID: 0}
  m_NavMeshLayer: 0
  m_StaticEditorFlags: 0
  m_IsActive: 1
--- !u!1 &144818
GameObject:
  m_ObjectHideFlags: 1
  m_PrefabParentObject: {fileID: 0}
  m_PrefabInternal: {fileID: 100100000}
  serializedVersion: 5
  m_Component:
  - component: {fileID: 495388}
  m_Layer: 0
  m_Name: BarrelPivot
  m_TagString: Untagged
  m_Icon: {fileID: 0}
  m_NavMeshLayer: 0
  m_StaticEditorFlags: 0
  m_IsActive: 1
--- !u!1 &145618
GameObject:
  m_ObjectHideFlags: 0
  m_PrefabParentObject: {fileID: 0}
  m_PrefabInternal: {fileID: 100100000}
  serializedVersion: 5
  m_Component:
  - component: {fileID: 499810}
  - component: {fileID: 3370264}
  - component: {fileID: 2319020}
  - component: {fileID: 11407808}
  m_Layer: 0
  m_Name: TankTurret6_Sub
  m_TagString: Untagged
  m_Icon: {fileID: 0}
  m_NavMeshLayer: 0
  m_StaticEditorFlags: 0
  m_IsActive: 1
--- !u!1 &178804
GameObject:
  m_ObjectHideFlags: 1
  m_PrefabParentObject: {fileID: 0}
  m_PrefabInternal: {fileID: 100100000}
  serializedVersion: 5
  m_Component:
  - component: {fileID: 415922}
  - component: {fileID: 3367330}
  - component: {fileID: 2390718}
  m_Layer: 0
  m_Name: Gun9_Sub
  m_TagString: Untagged
  m_Icon: {fileID: 0}
  m_NavMeshLayer: 0
  m_StaticEditorFlags: 0
  m_IsActive: 1
--- !u!1 &187450
GameObject:
  m_ObjectHideFlags: 1
  m_PrefabParentObject: {fileID: 0}
  m_PrefabInternal: {fileID: 100100000}
  serializedVersion: 5
  m_Component:
  - component: {fileID: 439066}
  - component: {fileID: 3368514}
  - component: {fileID: 2397886}
  m_Layer: 0
  m_Name: Gun9
  m_TagString: Untagged
  m_Icon: {fileID: 0}
  m_NavMeshLayer: 0
  m_StaticEditorFlags: 0
  m_IsActive: 1
--- !u!4 &400000
Transform:
  m_ObjectHideFlags: 1
  m_PrefabParentObject: {fileID: 0}
  m_PrefabInternal: {fileID: 100100000}
  m_GameObject: {fileID: 100000}
  m_LocalRotation: {x: 0, y: 0, z: 0, w: 1}
  m_LocalPosition: {x: 0, y: 0, z: 0.75}
  m_LocalScale: {x: 1, y: 1, z: 1}
  m_Children: []
  m_Father: {fileID: 415922}
  m_RootOrder: 0
  m_LocalEulerAnglesHint: {x: 0, y: 0, z: 0}
--- !u!4 &400004
Transform:
  m_ObjectHideFlags: 1
  m_PrefabParentObject: {fileID: 0}
  m_PrefabInternal: {fileID: 100100000}
  m_GameObject: {fileID: 100004}
  m_LocalRotation: {x: 0, y: 0, z: 0, w: 1}
  m_LocalPosition: {x: 10, y: 0, z: 0}
  m_LocalScale: {x: 1, y: 1, z: 1}
  m_Children:
  - {fileID: 499810}
  m_Father: {fileID: 0}
  m_RootOrder: 0
  m_LocalEulerAnglesHint: {x: 0, y: 0, z: 0}
--- !u!4 &400006
Transform:
  m_ObjectHideFlags: 1
  m_PrefabParentObject: {fileID: 0}
  m_PrefabInternal: {fileID: 100100000}
  m_GameObject: {fileID: 100006}
  m_LocalRotation: {x: 4.32978e-17, y: -0.7071067, z: -0.7071068, w: -4.3297806e-17}
  m_LocalPosition: {x: -0, y: 0, z: 0}
  m_LocalScale: {x: 2, y: 2, z: 2}
  m_Children: []
  m_Father: {fileID: 499810}
  m_RootOrder: 1
  m_LocalEulerAnglesHint: {x: 0, y: 0, z: 0}
--- !u!4 &411862
Transform:
  m_ObjectHideFlags: 1
  m_PrefabParentObject: {fileID: 0}
  m_PrefabInternal: {fileID: 100100000}
  m_GameObject: {fileID: 124502}
  m_LocalRotation: {x: 0.17364822, y: 0, z: 0, w: 0.9848078}
  m_LocalPosition: {x: 0, y: -1, z: -0.35}
  m_LocalScale: {x: 1, y: 1, z: 1}
  m_Children:
  - {fileID: 495388}
  m_Father: {fileID: 499810}
  m_RootOrder: 0
  m_LocalEulerAnglesHint: {x: 0, y: 0, z: 0}
--- !u!4 &415922
Transform:
  m_ObjectHideFlags: 1
  m_PrefabParentObject: {fileID: 0}
  m_PrefabInternal: {fileID: 100100000}
  m_GameObject: {fileID: 178804}
  m_LocalRotation: {x: 0, y: 0, z: 0, w: 1}
  m_LocalPosition: {x: 0, y: -0, z: 0}
  m_LocalScale: {x: 1, y: 1, z: 1}
  m_Children:
  - {fileID: 400000}
  m_Father: {fileID: 439066}
  m_RootOrder: 0
  m_LocalEulerAnglesHint: {x: 0, y: 0, z: 0}
--- !u!4 &439066
Transform:
  m_ObjectHideFlags: 1
  m_PrefabParentObject: {fileID: 0}
  m_PrefabInternal: {fileID: 100100000}
  m_GameObject: {fileID: 187450}
  m_LocalRotation: {x: -3.2326162e-17, y: 0.6090991, z: 0.79309416, w: -5.2004028e-17}
  m_LocalPosition: {x: 0, y: 0, z: -0}
  m_LocalScale: {x: 1, y: 1, z: 1}
  m_Children:
  - {fileID: 415922}
  m_Father: {fileID: 495388}
  m_RootOrder: 0
  m_LocalEulerAnglesHint: {x: 0, y: 0, z: 0}
--- !u!4 &495388
Transform:
  m_ObjectHideFlags: 1
  m_PrefabParentObject: {fileID: 0}
  m_PrefabInternal: {fileID: 100100000}
  m_GameObject: {fileID: 144818}
  m_LocalRotation: {x: 3.232616e-17, y: -0.6090992, z: -0.7930941, w: -5.2004025e-17}
  m_LocalPosition: {x: -0, y: 1.107, z: 0.4}
  m_LocalScale: {x: 0.80000013, y: 0.80000013, z: 0.8}
  m_Children:
  - {fileID: 439066}
  m_Father: {fileID: 411862}
  m_RootOrder: 0
  m_LocalEulerAnglesHint: {x: 0, y: 0, z: 0}
--- !u!4 &499810
Transform:
  m_ObjectHideFlags: 1
  m_PrefabParentObject: {fileID: 0}
  m_PrefabInternal: {fileID: 100100000}
  m_GameObject: {fileID: 145618}
  m_LocalRotation: {x: 0, y: 0, z: 0, w: 1}
  m_LocalPosition: {x: 0, y: 0.65, z: -0.13}
  m_LocalScale: {x: 0.5, y: 0.49999997, z: 0.49999997}
  m_Children:
  - {fileID: 411862}
  - {fileID: 400006}
  m_Father: {fileID: 400004}
  m_RootOrder: 0
  m_LocalEulerAnglesHint: {x: 0, y: 0, z: 0}
--- !u!23 &2319020
MeshRenderer:
  m_ObjectHideFlags: 1
  m_PrefabParentObject: {fileID: 0}
  m_PrefabInternal: {fileID: 100100000}
  m_GameObject: {fileID: 145618}
  m_Enabled: 1
  m_CastShadows: 1
  m_ReceiveShadows: 1
  m_DynamicOccludee: 1
  m_MotionVectors: 1
  m_LightProbeUsage: 1
  m_ReflectionProbeUsage: 1
  m_RenderingLayerMask: 4294967295
  m_Materials:
  - {fileID: 2100000, guid: 6adef02b13a80be45903897aad51ba94, type: 2}
  m_StaticBatchInfo:
    firstSubMesh: 0
    subMeshCount: 0
  m_StaticBatchRoot: {fileID: 0}
  m_ProbeAnchor: {fileID: 0}
  m_LightProbeVolumeOverride: {fileID: 0}
  m_ScaleInLightmap: 1
  m_PreserveUVs: 0
  m_IgnoreNormalsForChartDetection: 0
  m_ImportantGI: 0
  m_StitchLightmapSeams: 0
  m_SelectedEditorRenderState: 3
  m_MinimumChartSize: 4
  m_AutoUVMaxDistance: 0.5
  m_AutoUVMaxAngle: 89
  m_LightmapParameters: {fileID: 0}
  m_SortingLayerID: 0
  m_SortingLayer: 0
  m_SortingOrder: 0
--- !u!23 &2373928
MeshRenderer:
  m_ObjectHideFlags: 1
  m_PrefabParentObject: {fileID: 0}
  m_PrefabInternal: {fileID: 100100000}
  m_GameObject: {fileID: 124502}
  m_Enabled: 1
  m_CastShadows: 1
  m_ReceiveShadows: 1
  m_DynamicOccludee: 1
  m_MotionVectors: 1
  m_LightProbeUsage: 1
  m_ReflectionProbeUsage: 1
  m_RenderingLayerMask: 4294967295
  m_Materials:
  - {fileID: 2100000, guid: 6adef02b13a80be45903897aad51ba94, type: 2}
  m_StaticBatchInfo:
    firstSubMesh: 0
    subMeshCount: 0
  m_StaticBatchRoot: {fileID: 0}
  m_ProbeAnchor: {fileID: 0}
  m_LightProbeVolumeOverride: {fileID: 0}
  m_ScaleInLightmap: 1
  m_PreserveUVs: 0
  m_IgnoreNormalsForChartDetection: 0
  m_ImportantGI: 0
  m_StitchLightmapSeams: 0
  m_SelectedEditorRenderState: 3
  m_MinimumChartSize: 4
  m_AutoUVMaxDistance: 0.5
  m_AutoUVMaxAngle: 89
  m_LightmapParameters: {fileID: 0}
  m_SortingLayerID: 0
  m_SortingLayer: 0
  m_SortingOrder: 0
--- !u!23 &2390718
MeshRenderer:
  m_ObjectHideFlags: 1
  m_PrefabParentObject: {fileID: 0}
  m_PrefabInternal: {fileID: 100100000}
  m_GameObject: {fileID: 178804}
  m_Enabled: 1
  m_CastShadows: 1
  m_ReceiveShadows: 1
  m_DynamicOccludee: 1
  m_MotionVectors: 1
  m_LightProbeUsage: 1
  m_ReflectionProbeUsage: 1
  m_RenderingLayerMask: 4294967295
  m_Materials:
  - {fileID: 2100000, guid: d6fc83e5ee137c54da9e50b55c5661bb, type: 2}
  m_StaticBatchInfo:
    firstSubMesh: 0
    subMeshCount: 0
  m_StaticBatchRoot: {fileID: 0}
  m_ProbeAnchor: {fileID: 0}
  m_LightProbeVolumeOverride: {fileID: 0}
  m_ScaleInLightmap: 1
  m_PreserveUVs: 0
  m_IgnoreNormalsForChartDetection: 0
  m_ImportantGI: 0
  m_StitchLightmapSeams: 0
  m_SelectedEditorRenderState: 3
  m_MinimumChartSize: 4
  m_AutoUVMaxDistance: 0.5
  m_AutoUVMaxAngle: 89
  m_LightmapParameters: {fileID: 0}
  m_SortingLayerID: 0
  m_SortingLayer: 0
  m_SortingOrder: 0
--- !u!23 &2397886
MeshRenderer:
  m_ObjectHideFlags: 1
  m_PrefabParentObject: {fileID: 0}
  m_PrefabInternal: {fileID: 100100000}
  m_GameObject: {fileID: 187450}
  m_Enabled: 1
  m_CastShadows: 1
  m_ReceiveShadows: 1
  m_DynamicOccludee: 1
  m_MotionVectors: 1
  m_LightProbeUsage: 1
  m_ReflectionProbeUsage: 1
  m_RenderingLayerMask: 4294967295
  m_Materials:
  - {fileID: 2100000, guid: d6fc83e5ee137c54da9e50b55c5661bb, type: 2}
  m_StaticBatchInfo:
    firstSubMesh: 0
    subMeshCount: 0
  m_StaticBatchRoot: {fileID: 0}
  m_ProbeAnchor: {fileID: 0}
  m_LightProbeVolumeOverride: {fileID: 0}
  m_ScaleInLightmap: 1
  m_PreserveUVs: 0
  m_IgnoreNormalsForChartDetection: 0
  m_ImportantGI: 0
  m_StitchLightmapSeams: 0
  m_SelectedEditorRenderState: 3
  m_MinimumChartSize: 4
  m_AutoUVMaxDistance: 0.5
  m_AutoUVMaxAngle: 89
  m_LightmapParameters: {fileID: 0}
  m_SortingLayerID: 0
  m_SortingLayer: 0
  m_SortingOrder: 0
--- !u!33 &3342952
MeshFilter:
  m_ObjectHideFlags: 1
  m_PrefabParentObject: {fileID: 0}
  m_PrefabInternal: {fileID: 100100000}
  m_GameObject: {fileID: 124502}
  m_Mesh: {fileID: 4300138, guid: 51406b7de48b3a0439af7ba6d89a8e3e, type: 3}
--- !u!33 &3367330
MeshFilter:
  m_ObjectHideFlags: 1
  m_PrefabParentObject: {fileID: 0}
  m_PrefabInternal: {fileID: 100100000}
  m_GameObject: {fileID: 178804}
  m_Mesh: {fileID: 4300116, guid: 51406b7de48b3a0439af7ba6d89a8e3e, type: 3}
--- !u!33 &3368514
MeshFilter:
  m_ObjectHideFlags: 1
  m_PrefabParentObject: {fileID: 0}
  m_PrefabInternal: {fileID: 100100000}
  m_GameObject: {fileID: 187450}
  m_Mesh: {fileID: 4300114, guid: 51406b7de48b3a0439af7ba6d89a8e3e, type: 3}
--- !u!33 &3370264
MeshFilter:
  m_ObjectHideFlags: 1
  m_PrefabParentObject: {fileID: 0}
  m_PrefabInternal: {fileID: 100100000}
  m_GameObject: {fileID: 145618}
  m_Mesh: {fileID: 4300140, guid: 51406b7de48b3a0439af7ba6d89a8e3e, type: 3}
--- !u!114 &11400000
MonoBehaviour:
  m_ObjectHideFlags: 1
  m_PrefabParentObject: {fileID: 0}
  m_PrefabInternal: {fileID: 100100000}
  m_GameObject: {fileID: 100004}
  m_Enabled: 1
  m_EditorHideFlags: 0
  m_Script: {fileID: 11500000, guid: e0fa5d95603cc244893433b4b523b1eb, type: 3}
  m_Name: 
  m_EditorClassIdentifier: 
  isObjectUnit: 0
  prefabID: 0
  instanceID: 0
  factionID: 0
  unitName: Drone
  desp: High mobility utility drone that excels as a scout as well as field repair.
    Although carries a weapon it's vulnerable in any combat situation.
  iconSprite: {fileID: 21300000, guid: 2ac8d2cb034236d45af1c3a1ea6b67a6, type: 3}
  trigger: 0
  isAIUnit: 0
  lastAttacker: {fileID: 0}
  lastTarget: {fileID: 0}
  damageType: 0
  armorType: 0
  tile: {fileID: 0}
  hitThreshold: 0.25
  targetPoint: {fileID: 400006}
  requireDirectLOSToAttack: 1
  value: 5
  moveSpeed: 10
  silenced: 0
  defaultHP: 5
  defaultAP: 20
  HP: 5
  AP: 20
  HPPerTurn: 0
  APPerTurn: 5
  moveAPCost: 2
  attackAPCost: 6
  turnPriority: 10
  moveRange: 4
  attackRange: 2
  attackRangeMin: 0
  sight: 6
  movePerTurn: 1
  attackPerTurn: 1
  counterPerTurn: 0
  abilityPerTurn: 1
  moveRemain: 1
  attackRemain: 1
  counterRemain: 1
  abilityRemain: 1
  damageMin: 2
  damageMax: 3
  hitChance: 0.95
  dodgeChance: 0.25
  critChance: 0.1
  critAvoidance: 0
  critMultiplier: 2
  stunChance: 0
  stunAvoidance: 0
  stunDuration: 0
  silentChance: 0
  silentAvoidance: 0
  silentDuration: 0
  flankingBonus: 0
  flankedModifier: 0
  overwatching: 0
  isHybridUnit: 0
  meleeRange: 0
  damageMinMelee: 3
  damageMaxMelee: 6
  hitChanceMelee: 0.8
  critChanceMelee: 0.1
  coverStatus: 0
  effectList: []
  activeEffect:
    HP: 0
    AP: 0
    HPPerTurn: 0
    APPerTurn: 0
    moveAPCost: 0
    attackAPCost: 0
    turnPriority: 0
    moveRange: 0
    attackRange: 0
    sight: 0
    movePerTurn: 0
    attackPerTurn: 0
    counterPerTurn: 0
    damage: 0
    damageMin: 0
    damageMax: 0
    hitChance: 0
    dodgeChance: 0
    critChance: 0
    critAvoidance: 0
    critMultiplier: 0
    stunChance: 0
    stunAvoidance: 0
    stunDuration: 0
    silentChance: 0
    silentAvoidance: 0
    silentDuration: 0
    flankingBonus: 0
    flankedModifier: 0
    icon: {fileID: 0}
    name: 
    desp: 
    duration: -1
    durationCounter:
      duration: 0
      turnCounter: 0
    damageType: 0
    HPMin: 0
    HPMax: 0
    APMin: 0
    APMax: 0
    stun: 0
    silence: 0
  abilityIDList: 0d000000050000000400000003000000
  abilityList: []
  thisT: {fileID: 0}
  thisObj: {fileID: 0}
  rotateTurretOnly: 0
  rotateTurretAimInXAxis: 0
  turretObject: {fileID: 0}
  barrelObject: {fileID: 495388}
  shootObject: {fileID: 11400000, guid: b16da028bb962384fa47d68123b9ce15, type: 2}
  shootObjectMelee: {fileID: 0}
  shootPointList:
  - {fileID: 400000}
  - {fileID: 400000}
  - {fileID: 400000}
  delayBetweenShootPoint: 0
  destroyEffectObj: {fileID: 100000, guid: d34914b9365d4384da7654c6cd60fa1f, type: 2}
  autoDestroyEffect: 0
  destroyEffectDuration: 1.5
--- !u!114 &11407808
MonoBehaviour:
  m_ObjectHideFlags: 1
  m_PrefabParentObject: {fileID: 0}
  m_PrefabInternal: {fileID: 100100000}
  m_GameObject: {fileID: 145618}
  m_Enabled: 1
  m_EditorHideFlags: 0
  m_Script: {fileID: 11500000, guid: f477b08ac2ffcce4f9a50d4eca2f7d96, type: 3}
  m_Name: 
  m_EditorClassIdentifier: 
  magnitude: 0.05
  frequency: 3
--- !u!114 &11468736
MonoBehaviour:
  m_ObjectHideFlags: 1
  m_PrefabParentObject: {fileID: 0}
  m_PrefabInternal: {fileID: 100100000}
  m_GameObject: {fileID: 100004}
  m_Enabled: 1
  m_EditorHideFlags: 0
  m_Script: {fileID: 11500000, guid: 6207c35c06a6f0a4b94325ae9c589da2, type: 3}
  m_Name: 
  m_EditorClassIdentifier: 
  loopMoveSound: 0
  selectSound: {fileID: 0}
  moveSound: {fileID: 0}
  attackSound: {fileID: 0}
  attackMeleeSound: {fileID: 0}
  hitSound: {fileID: 0}
  destroySound: {fileID: 0}
--- !u!114 &11483626
MonoBehaviour:
  m_ObjectHideFlags: 1
  m_PrefabParentObject: {fileID: 0}
  m_PrefabInternal: {fileID: 100100000}
  m_GameObject: {fileID: 100004}
  m_Enabled: 1
  m_EditorHideFlags: 0
  m_Script: {fileID: 11500000, guid: 2a7a31a46495ccc49b60fbff252b3730, type: 3}
  m_Name: 
  m_EditorClassIdentifier: 
  aniRootObj: {fileID: 0}
  anim: {fileID: 0}
  clipIdle: {fileID: 0}
  clipMove: {fileID: 0}
  clipAttack: {fileID: 0}
  clipAttackMelee: {fileID: 0}
  clipHit: {fileID: 0}
  clipDestroy: {fileID: 0}
  attackDelay: 0
  attackDelayMelee: 0
--- !u!1001 &100100000
Prefab:
  m_ObjectHideFlags: 1
  serializedVersion: 2
  m_Modification:
    m_TransformParent: {fileID: 0}
    m_Modifications: []
    m_RemovedComponents: []
  m_ParentPrefab: {fileID: 0}
  m_RootGameObject: {fileID: 100004}
  m_IsPrefabParent: 1
